^D:\_SKILLBOX\SB_UNREALENGINE\VSASSIGNMENTS\LESSON1\HW17\HW17\DEBUG\HW17.OBJ
C:\PROGRAM FILES (X86)\WINDOWS KITS\10\LIB\10.0.18362.0\UM\X86\KERNEL32.LIB
C:\PROGRAM FILES (X86)\WINDOWS KITS\10\LIB\10.0.18362.0\UM\X86\USER32.LIB
C:\PROGRAM FILES (X86)\WINDOWS KITS\10\LIB\10.0.18362.0\UM\X86\GDI32.LIB
C:\PROGRAM FILES (X86)\WINDOWS KITS\10\LIB\10.0.18362.0\UM\X86\WINSPOOL.LIB
C:\PROGRAM FILES (X86)\WINDOWS KITS\10\LIB\10.0.18362.0\UM\X86\COMDLG32.LIB
C:\PROGRAM FILES (X86)\WINDOWS KITS\10\LIB\10.0.18362.0\UM\X86\ADVAPI32.LIB
C:\PROGRAM FILES (X86)\WINDOWS KITS\10\LIB\10.0.18362.0\UM\X86\SHELL32.LIB
C:\PROGRAM FILES (X86)\WINDOWS KITS\10\LIB\10.0.18362.0\UM\X86\OLE32.LIB
C:\PROGRAM FILES (X86)\WINDOWS KITS\10\LIB\10.0.18362.0\UM\X86\OLEAUT32.LIB
C:\PROGRAM FILES (X86)\WINDOWS KITS\10\LIB\10.0.18362.0\UM\X86\UUID.LIB
C:\PROGRAM FILES (X86)\WINDOWS KITS\10\LIB\10.0.18362.0\UM\X86\ODBC32.LIB
C:\PROGRAM FILES (X86)\WINDOWS KITS\10\LIB\10.0.18362.0\UM\X86\ODBCCP32.LIB
D:\_SKILLBOX\SB_UNREALENGINE\VSASSIGNMENTS\LESSON1\HW17\HW17\DEBUG\HW17.OBJ
C:\WINDOWS\GLOBALIZATION\SORTING\SORTDEFAULT.NLS
D:\PROGRAMS\VISUALSTUDIO2019\VC\TOOLS\MSVC\14.24.28314\LIB\X86\MSVCPRTD.LIB
D:\PROGRAMS\VISUALSTUDIO2019\VC\TOOLS\MSVC\14.24.28314\LIB\X86\MSVCRTD.LIB
D:\PROGRAMS\VISUALSTUDIO2019\VC\TOOLS\MSVC\14.24.28314\LIB\X86\OLDNAMES.LIB
D:\PROGRAMS\VISUALSTUDIO2019\VC\TOOLS\MSVC\14.24.28314\LIB\X86\VCRUNTIMED.LIB
C:\PROGRAM FILES (X86)\WINDOWS KITS\10\LIB\10.0.18362.0\UCRT\X86\UCRTD.LIB
D:\PROGRAMS\VISUALSTUDIO2019\VC\TOOLS\MSVC\14.24.28314\BIN\HOSTX86\X86\CVTRES.EXE
D:\PROGRAMS\VISUALSTUDIO2019\VC\TOOLS\MSVC\14.24.28314\BIN\HOSTX86\X86\MSPDBSRV.EXE
C:\WINDOWS\SYSTEM32\TZRES.DLL
